Homework 5
…
# read data in and convert 3 columns to type factor
crabs <- 
  read.table(here("hw05_summarizing-data", "crabs.txt"),
           header = TRUE) %>% 
  as_tibble() %>% 
  mutate_at(vars(color, spine, y), as.factor)

# relabel the 3 factors
levels(crabs$color) <- c("light", "medium", "dark", "darker")
levels(crabs$spine) <- c("Both Good", "One Worn/Broken", "Both Worn/Broken")
levels(crabs$y) <- c("No Sattelite", "At least 1 Sattelite")

print(crabs)

## # A tibble: 173 x 6
##    color  spine            width satell weight y                   
##    <fct>  <fct>            <dbl>  <int>  <int> <fct>               
##  1 medium Both Worn/Broken  28.3      8   3050 At least 1 Sattelite
##  2 dark   Both Worn/Broken  22.5      0   1550 No Sattelite        
##  3 light  Both Good         26        9   2300 At least 1 Sattelite
##  4 dark   Both Worn/Broken  24.8      0   2100 No Sattelite        
##  5 dark   Both Worn/Broken  26        4   2600 At least 1 Sattelite
##  6 medium Both Worn/Broken  23.8      0   2100 No Sattelite        
##  7 light  Both Good         26.5      0   2350 No Sattelite        
##  8 dark   One Worn/Broken   24.7      0   1900 No Sattelite        
##  9 medium Both Good         23.7      0   1950 No Sattelite        
## 10 dark   Both Worn/Broken  25.6      0   2150 No Sattelite        
## # ... with 163 more rows
…
